\relax 
\providecommand\hyper@newdestlabel[2]{}
\providecommand\HyperFirstAtBeginDocument{\AtBeginDocument}
\HyperFirstAtBeginDocument{\ifx\hyper@anchor\@undefined
\global\let\oldcontentsline\contentsline
\gdef\contentsline#1#2#3#4{\oldcontentsline{#1}{#2}{#3}}
\global\let\oldnewlabel\newlabel
\gdef\newlabel#1#2{\newlabelxx{#1}#2}
\gdef\newlabelxx#1#2#3#4#5#6{\oldnewlabel{#1}{{#2}{#3}}}
\AtEndDocument{\ifx\hyper@anchor\@undefined
\let\contentsline\oldcontentsline
\let\newlabel\oldnewlabel
\fi}
\fi}
\global\let\hyper@last\relax 
\gdef\HyperFirstAtBeginDocument#1{#1}
\providecommand\HyField@AuxAddToFields[1]{}
\providecommand\HyField@AuxAddToCoFields[2]{}
\select@language{english}
\@writefile{toc}{\select@language{english}}
\@writefile{lof}{\select@language{english}}
\@writefile{lot}{\select@language{english}}
\@writefile{toc}{\contentsline {section}{\numberline {1}Reading material}{2}{section.1}}
\@writefile{toc}{\contentsline {section}{\numberline {2}Data Cleaning}{2}{section.2}}
\@writefile{toc}{\contentsline {subsection}{\numberline {2.1}Eliminate all entries from your gene table (merged) which do not belong to humans}{2}{subsection.2.1}}
\@writefile{toc}{\contentsline {subsection}{\numberline {2.2}The gene table (merged) has duplicates}{3}{subsection.2.2}}
\@writefile{toc}{\contentsline {subsection}{\numberline {2.3}All values which have 1:n relationship to a gene should be moved to a separate table}{4}{subsection.2.3}}
\@writefile{toc}{\contentsline {section}{\numberline {3}Parse the Gene Ontology}{5}{section.3}}
\@writefile{toc}{\contentsline {section}{\numberline {4}Connect the data to the Gene2Go data from assignment 2 via ID}{6}{section.4}}
\@writefile{toc}{\contentsline {subsection}{\numberline {4.1}Populate the Gene Ontology}{7}{subsection.4.1}}
\@writefile{toc}{\contentsline {subsection}{\numberline {4.2}Recursive SQL query to find ancestors/successors}{8}{subsection.4.2}}
\@writefile{toc}{\contentsline {section}{\numberline {5}Answer to the queries}{8}{section.5}}
\@writefile{toc}{\contentsline {subsection}{\numberline {5.1}Queries for Task 1}{8}{subsection.5.1}}
\@writefile{toc}{\contentsline {subsection}{\numberline {5.2}Queries for Task 2}{9}{subsection.5.2}}
\gdef\minted@oldcachelist{,
  default.pygstyle,
  vs.pygstyle,
  default-pyg-prefix.pygstyle,
  3CBFF7D544377DAA3D89A24B7DC3A5C688CFC4EAD913031D954F5F10ADAF63C1.pygtex,
  5A6FC7AAE740B35D1A6865FF73FDB4B45ADCD281E0F1BD9686834D92B78C02DF.pygtex,
  814A95DE0B1CD3CC7B64C46BDD8A505304DDE7E1A84D707376F4F69F502F162C.pygtex,
  BDC34C11FD939EF0BCA5C8FB4201ADD9BE539E5E79AA35FF0810FEBF815C05C9.pygtex,
  BCAEA2D3BD342E9A4C950520F64CA91A04DDE7E1A84D707376F4F69F502F162C.pygtex,
  7571605151F885B24386179CE96B06A0BE539E5E79AA35FF0810FEBF815C05C9.pygtex,
  C070DD1ED79EA5C1FCFB3A7653D3AD8C5ADCD281E0F1BD9686834D92B78C02DF.pygtex,
  852B069035CB286E47CE0FA5773AE8F3BE539E5E79AA35FF0810FEBF815C05C9.pygtex,
  DBB0E80C69B4E04A0339D2598EE25FD6BE539E5E79AA35FF0810FEBF815C05C9.pygtex,
  D2D553894BDD7C793C212438E8ADCB97BE539E5E79AA35FF0810FEBF815C05C9.pygtex,
  E646A46FA1379EE399D19BA37E252F3DBE539E5E79AA35FF0810FEBF815C05C9.pygtex,
  6282093097192120073A70538515745FBE539E5E79AA35FF0810FEBF815C05C9.pygtex,
  8D0A8942BB1DD8265E50B0FDA931F7C388CFC4EAD913031D954F5F10ADAF63C1.pygtex,
  448CFF2655E03046B1288F0F40001E56BE539E5E79AA35FF0810FEBF815C05C9.pygtex,
  3C7E035E84D883CFD201D307EA2C0298BE539E5E79AA35FF0810FEBF815C05C9.pygtex,
  13B92AEAC96C812745C25D76D49E826688CFC4EAD913031D954F5F10ADAF63C1.pygtex,
  6300EC0783C87FC1DE8A0061019475065ADCD281E0F1BD9686834D92B78C02DF.pygtex,
  19F2C7D2605594ADBCA6B5EDE5F730A388CFC4EAD913031D954F5F10ADAF63C1.pygtex,
  30DDC67A3559B37BC7E9786EC2435E235ADCD281E0F1BD9686834D92B78C02DF.pygtex,
  2A72FA38E46D5D99EB8D007F5EC5F9CABE539E5E79AA35FF0810FEBF815C05C9.pygtex,
  E0143FB92193151A2D44ED2B47F0C95304DDE7E1A84D707376F4F69F502F162C.pygtex,
  1F5A80CA787A1653E0DCEEF3CC71D5D4BE539E5E79AA35FF0810FEBF815C05C9.pygtex,
  CBCBF276763F0BA41A9F9EDEB4CE1A2ABE539E5E79AA35FF0810FEBF815C05C9.pygtex,
  6BCADF3A182E08120137475703F44DBCBE539E5E79AA35FF0810FEBF815C05C9.pygtex,
  8E2DA85B2716A1332E9550FF3117216CBE539E5E79AA35FF0810FEBF815C05C9.pygtex,
  997A1EAD9E2895D792F98DB1DAB59A3FBE539E5E79AA35FF0810FEBF815C05C9.pygtex}
\@writefile{toc}{\contentsline {section}{\numberline {6}Database Schema}{10}{section.6}}
\@writefile{lof}{\contentsline {figure}{\numberline {1}{\ignorespaces The database schema}}{10}{figure.1}}
