[1] Config.pm:327> INFO - This is Biber 2.3
[1] Config.pm:330> INFO - Logfile is 'lit.bib.blg'
[86] biber:287> INFO - === So Jun  5, 2016, 13:37:23
[228] Utils.pm:163> ERROR - Cannot find control file 'lit.bib.bcf'! - did you pass the "backend=biber" option to BibLaTeX?
[229] Biber.pm:112> INFO - ERRORS: 1
